C:\softwares\MobileAppProjects\src\test\java\mobileApp\PreferencePageTest.java
C:\softwares\MobileAppProjects\src\test\java\mobileApp\ApiDemoAppTest.java
C:\softwares\MobileAppProjects\src\test\java\mobileApps\MobileAppsFramework\AppTest.java
